%YAML 1.1
%TAG !u! tag:unity3d.com,2011:
--- !u!1045 &1
EditorBuildSettings:
  m_ObjectHideFlags: 0
  serializedVersion: 2
  m_Scenes:
  - enabled: 0
    path: Assets/Scenes/MainScene.unity
    guid: 99c9720ab356a0642a771bea13969a05
  - enabled: 1
    path: Assets/GoogleARCore/Examples/HelloAR/Scenes/HelloAR.unity
    guid: e6a6fa04348cb45c9b0221eb19c946da
  m_configObjects: {}
